www.awnsoft.com        www.cwmsoft.com        www.dawsoft.com        www.ethsoft.com        
www.awnsoft.com        www.cwmsoft.com        www.dawsoft.com        www.ethsoft.com        
www.fiesoft.com        www.fubsoft.com        www.fugsoft.com        www.hocsoft.com        
www.awnsoft.com        www.cwmsoft.com        www.dawsoft.com        www.ethsoft.com        
www.fiesoft.com        www.fubsoft.com        www.fugsoft.com        www.hocsoft.com        
www.ifesoft.com        www.iffsoft.com        www.jibsoft.com        www.jowsoft.com        
www.awnsoft.com        www.cwmsoft.com        www.dawsoft.com        www.ethsoft.com        
www.fiesoft.com        www.fubsoft.com        www.fugsoft.com        www.hocsoft.com        
www.ifesoft.com        www.iffsoft.com        www.jibsoft.com        www.jowsoft.com        
www.judsoft.com        www.jugsoft.com        www.kebsoft.com        www.kefsoft.com        
www.awnsoft.com        www.cwmsoft.com        www.dawsoft.com        www.ethsoft.com        
www.fiesoft.com        www.fubsoft.com        www.fugsoft.com        www.hocsoft.com        
www.ifesoft.com        www.iffsoft.com        www.jibsoft.com        www.jowsoft.com        
www.judsoft.com        www.jugsoft.com        www.kebsoft.com        www.kefsoft.com        
www.kexsoft.com        www.kifsoft.com        www.kopsoft.com        www.levsoft.com        
www.awnsoft.com        www.cwmsoft.com        www.dawsoft.com        www.ethsoft.com        
www.fiesoft.com        www.fubsoft.com        www.fugsoft.com        www.hocsoft.com        
www.ifesoft.com        www.iffsoft.com        www.jibsoft.com        www.jowsoft.com        
www.judsoft.com        www.jugsoft.com        www.kebsoft.com        www.kefsoft.com        
www.kexsoft.com        www.kifsoft.com        www.kopsoft.com        www.levsoft.com        
www.luxsoft.com        www.mhosoft.com        www.morsoft.com        www.mowsoft.com        
www.awnsoft.com        www.cwmsoft.com        www.dawsoft.com        www.ethsoft.com        
www.fiesoft.com        www.fubsoft.com        www.fugsoft.com        www.hocsoft.com        
www.ifesoft.com        www.iffsoft.com        www.jibsoft.com        www.jowsoft.com        
www.judsoft.com        www.jugsoft.com        www.kebsoft.com        www.kefsoft.com        
www.kexsoft.com        www.kifsoft.com        www.kopsoft.com        www.levsoft.com        
www.luxsoft.com        www.mhosoft.com        www.morsoft.com        www.mowsoft.com        
www.orfsoft.com        www.ortsoft.com        www.qatsoft.com        www.ryasoft.com        
www.awnsoft.com        www.cwmsoft.com        www.dawsoft.com        www.ethsoft.com        
www.fiesoft.com        www.fubsoft.com        www.fugsoft.com        www.hocsoft.com        
www.ifesoft.com        www.iffsoft.com        www.jibsoft.com        www.jowsoft.com        
www.judsoft.com        www.jugsoft.com        www.kebsoft.com        www.kefsoft.com        
www.kexsoft.com        www.kifsoft.com        www.kopsoft.com        www.levsoft.com        
www.luxsoft.com        www.mhosoft.com        www.morsoft.com        www.mowsoft.com        
www.orfsoft.com        www.ortsoft.com        www.qatsoft.com        www.ryasoft.com        
www.segsoft.com        www.suqsoft.com        www.tajsoft.com        www.tawsoft.com        
www.awnsoft.com        www.cwmsoft.com        www.dawsoft.com        www.ethsoft.com        
www.fiesoft.com        www.fubsoft.com        www.fugsoft.com        www.hocsoft.com        
www.ifesoft.com        www.iffsoft.com        www.jibsoft.com        www.jowsoft.com        
www.judsoft.com        www.jugsoft.com        www.kebsoft.com        www.kefsoft.com        
www.kexsoft.com        www.kifsoft.com        www.kopsoft.com        www.levsoft.com        
www.luxsoft.com        www.mhosoft.com        www.morsoft.com        www.mowsoft.com        
www.orfsoft.com        www.ortsoft.com        www.qatsoft.com        www.ryasoft.com        
www.segsoft.com        www.suqsoft.com        www.tajsoft.com        www.tawsoft.com        
www.togsoft.com        www.tyesoft.com        www.vugsoft.com        www.yadsoft.com        
www.awnsoft.com        www.cwmsoft.com        www.dawsoft.com        www.ethsoft.com        
www.fiesoft.com        www.fubsoft.com        www.fugsoft.com        www.hocsoft.com        
www.ifesoft.com        www.iffsoft.com        www.jibsoft.com        www.jowsoft.com        
www.judsoft.com        www.jugsoft.com        www.kebsoft.com        www.kefsoft.com        
www.kexsoft.com        www.kifsoft.com        www.kopsoft.com        www.levsoft.com        
www.luxsoft.com        www.mhosoft.com        www.morsoft.com        www.mowsoft.com        
www.orfsoft.com        www.ortsoft.com        www.qatsoft.com        www.ryasoft.com        
www.segsoft.com        www.suqsoft.com        www.tajsoft.com        www.tawsoft.com        
www.togsoft.com        www.tyesoft.com        www.vugsoft.com        www.yadsoft.com        
www.yagsoft.com        www.yeosoft.com        www.zeksoft.com        www.zelsoft.com        
