www.aahsjob.com        www.aalsjob.com        www.abasjob.com        www.abbajob.com        
www.aahsjob.com        www.aalsjob.com        www.abasjob.com        www.abbajob.com        
www.abbejob.com        www.abedjob.com        www.abetjob.com        www.ablyjob.com        
